^D:\КН-38\ЯВОРСЬКИЙ Б. Я\3 КУРС\2 СЕМЕСТР\ТЕХНОЛОГІЇ ПРОГРАМУВАННЯ В РОЗПОДІЛЕНИХ ІС\ЛАБОРАТОРНА 2\STRINGCPP\STRINGCPP\MAIN.CPP
/c /ZI /nologo /W3 /WX- /sdl /Od /Oy- /D WIN32 /D _DEBUG /D _CONSOLE /D _UNICODE /D UNICODE /Gm /EHsc /RTC1 /MDd /GS /fp:precise /Zc:wchar_t /Zc:forScope /Zc:inline /Fo"DEBUG\\" /Fd"DEBUG\VC140.PDB" /Gd /TP /analyze- D:\КН-38\ЯВОРСЬКИЙ Б. Я\3 КУРС\2 СЕМЕСТР\ТЕХНОЛОГІЇ ПРОГРАМУВАННЯ В РОЗПОДІЛЕНИХ ІС\ЛАБОРАТОРНА 2\STRINGCPP\STRINGCPP\MAIN.CPP
^D:\КН-38\ЯВОРСЬКИЙ Б. Я\3 КУРС\2 СЕМЕСТР\ТЕХНОЛОГІЇ ПРОГРАМУВАННЯ В РОЗПОДІЛЕНИХ ІС\ЛБ2\STRINGCPP\STRINGCPP\MAIN.CPP
/c /ZI /nologo /W3 /WX- /sdl /Od /Oy- /D WIN32 /D _DEBUG /D _CONSOLE /D _UNICODE /D UNICODE /Gm /EHsc /RTC1 /MDd /GS /fp:precise /Zc:wchar_t /Zc:forScope /Zc:inline /Fo"DEBUG\\" /Fd"DEBUG\VC140.PDB" /Gd /TP /analyze- D:\КН-38\ЯВОРСЬКИЙ Б. Я\3 КУРС\2 СЕМЕСТР\ТЕХНОЛОГІЇ ПРОГРАМУВАННЯ В РОЗПОДІЛЕНИХ ІС\ЛБ2\STRINGCPP\STRINGCPP\MAIN.CPP
