^D:\КН-38\ЯВОРСЬКИЙ Б. Я\3 КУРС\2 СЕМЕСТР\ТЕХНОЛОГІЇ ПРОГРАМУВАННЯ В РОЗПОДІЛЕНИХ ІС\ЛАБОРАТОРНА 2\STRINGCPP\STRINGCPP\DEBUG\MAIN.OBJ
D:\КН-38\Яворський Б. Я\3 КУРС\2 семестр\Технології програмування в розподілених ІС\Лабораторна 2\STRINGCPP\DEBUG\STRINGCPP.ILK
D:\КН-38\Яворський Б. Я\3 КУРС\2 семестр\Технології програмування в розподілених ІС\Лабораторна 2\STRINGCPP\DEBUG\STRINGCPP.EXE
D:\КН-38\ЯВОРСЬКИЙ Б. Я\3 КУРС\2 СЕМЕСТР\ТЕХНОЛОГІЇ ПРОГРАМУВАННЯ В РОЗПОДІЛЕНИХ ІС\ЛАБОРАТОРНА 2\STRINGCPP\DEBUG\STRINGCPP.PDB
^D:\КН-38\ЯВОРСЬКИЙ Б. Я\3 КУРС\2 СЕМЕСТР\ТЕХНОЛОГІЇ ПРОГРАМУВАННЯ В РОЗПОДІЛЕНИХ ІС\ЛБ2\STRINGCPP\STRINGCPP\DEBUG\MAIN.OBJ
D:\КН-38\Яворський Б. Я\3 КУРС\2 семестр\Технології програмування в розподілених ІС\ЛБ2\STRINGCPP\DEBUG\STRINGCPP.ILK
D:\КН-38\Яворський Б. Я\3 КУРС\2 семестр\Технології програмування в розподілених ІС\ЛБ2\STRINGCPP\DEBUG\STRINGCPP.EXE
D:\КН-38\ЯВОРСЬКИЙ Б. Я\3 КУРС\2 СЕМЕСТР\ТЕХНОЛОГІЇ ПРОГРАМУВАННЯ В РОЗПОДІЛЕНИХ ІС\ЛБ2\STRINGCPP\DEBUG\STRINGCPP.PDB
